%YAML 1.1
%TAG !u! tag:unity3d.com,2011:
--- !u!114 &11400000
MonoBehaviour:
  m_ObjectHideFlags: 0
  m_CorrespondingSourceObject: {fileID: 0}
  m_PrefabInstance: {fileID: 0}
  m_PrefabAsset: {fileID: 0}
  m_GameObject: {fileID: 0}
  m_Enabled: 1
  m_EditorHideFlags: 0
  m_Script: {fileID: 11500000, guid: 95e66c6366d904e98bc83428217d4fd7, type: 3}
  m_Name: Card
  m_EditorClassIdentifier: 
  _data:
    _json: '{"graph":{"variables":{"Kind":"Flow","collection":{"$content":[{"name":"LayersCount","value":{"$content":2,"$type":"System.Int32"},"typeHandle":{"Identification":"System.Int32,
      mscorlib, Version=4.0.0.0, Culture=neutral, PublicKeyToken=b77a5c561934e089","$version":"A"},"$version":"A"},{"name":"Last
      Height","value":{"$content":0.0,"$type":"System.Single"},"typeHandle":{"Identification":"System.Single,
      mscorlib, Version=4.0.0.0, Culture=neutral, PublicKeyToken=b77a5c561934e089","$version":"A"},"$version":"A"},{"name":"Target
      Position","value":{"x":0.0,"y":0.0,"$type":"UnityEngine.Vector2"},"typeHandle":{"Identification":"UnityEngine.Vector2,
      UnityEngine.CoreModule, Version=0.0.0.0, Culture=neutral, PublicKeyToken=null","$version":"A"},"$version":"A"},{"name":"Target
      Height","value":{"$content":0.0,"$type":"System.Single"},"typeHandle":{"Identification":"System.Single,
      mscorlib, Version=4.0.0.0, Culture=neutral, PublicKeyToken=b77a5c561934e089","$version":"A"},"$version":"A"},{"name":"Card_ConsumeMove","value":{"$content":"Card_ConsumeMove","$type":"System.String"},"typeHandle":{"Identification":"System.String,
      mscorlib, Version=4.0.0.0, Culture=neutral, PublicKeyToken=b77a5c561934e089","$version":"A"},"$version":"A"},{"name":"Current
      Speed","value":{"$content":0.0,"$type":"System.Single"},"typeHandle":{"Identification":"System.Single,
      mscorlib, Version=4.0.0.0, Culture=neutral, PublicKeyToken=b77a5c561934e089","$version":"A"},"$version":"A"},{"name":"Is
      Move","value":{"$content":false,"$type":"System.Boolean"},"typeHandle":{"Identification":"System.Boolean,
      mscorlib, Version=4.0.0.0, Culture=neutral, PublicKeyToken=b77a5c561934e089","$version":"A"},"$version":"A"}],"$version":"A"},"$version":"A"},"controlInputDefinitions":[],"controlOutputDefinitions":[],"valueInputDefinitions":[],"valueOutputDefinitions":[],"title":"Card","summary":null,"pan":{"x":-233.7783,"y":-1438.755},"zoom":0.4,"elements":[{"argumentCount":1,"coroutine":false,"defaultValues":{"target":null,"name":{"$content":"SetCardLayer","$type":"System.String"}},"position":{"x":-779.0,"y":-234.0},"guid":"aa9869a2-0042-4d35-ba73-dcf2a703ccb1","$version":"A","$type":"Unity.VisualScripting.CustomEvent","$id":"16"},{"specifyFallback":false,"kind":"Object","defaultValues":{"name":{"$content":"ShadowSprite","$type":"System.String"},"object":null},"position":{"x":-256.0,"y":-154.0},"guid":"b5e20d3f-b6b5-45f4-8b1e-e8d4fefa5719","$version":"A","$type":"Unity.VisualScripting.GetVariable","$id":"18"},{"defaultValues":{},"position":{"x":1335.0,"y":1935.0},"guid":"25cc5adb-4da4-44b8-b7f6-786c18bac097","$version":"A","$type":"Unity.VisualScripting.If","$id":"20"},{"defaultValues":{},"position":{"x":-266.0,"y":-1521.0},"guid":"3965a813-e761-494d-9ada-be23dbc74538","$version":"A","$type":"Unity.VisualScripting.If","$id":"22"},{"numeric":false,"defaultValues":{},"position":{"x":-268.0,"y":-1820.0},"guid":"54e26037-1f5e-47d1-9c07-72348c956a86","$version":"A","$type":"Unity.VisualScripting.NotEqual","$id":"24"},{"specifyFallback":false,"kind":"Graph","defaultValues":{"name":{"$content":"Target
      Position","$type":"System.String"}},"position":{"x":1676.0,"y":1920.0},"guid":"d49e0e23-485f-4864-a55c-10c61bfd8173","$version":"A","$type":"Unity.VisualScripting.GetVariable","$id":"26"},{"defaultValues":{"b":{"$content":1.0,"$type":"System.Single"}},"position":{"x":869.0,"y":2331.0},"guid":"54969df5-0e81-4d72-a019-075c2aaa07fe","$version":"A","$type":"Unity.VisualScripting.ScalarMultiply","$id":"28"},{"specifyFallback":false,"kind":"Object","defaultValues":{"name":{"$content":"Height","$type":"System.String"},"object":null},"position":{"x":506.0,"y":-1713.0},"guid":"72c3422d-bc6d-4cbb-ab2d-b849a5d44e05","$version":"A","$type":"Unity.VisualScripting.GetVariable","$id":"30"},{"member":{"name":"x","parameterTypes":null,"targetType":"UnityEngine.Vector3","targetTypeName":"UnityEngine.Vector3","$version":"A"},"defaultValues":{"target":{"x":0.0,"y":0.0,"z":0.0,"$type":"UnityEngine.Vector3"}},"position":{"x":1371.0,"y":2270.0},"guid":"d7dcbeb6-8c6e-44cb-b35a-d6a710285c0a","$version":"A","$type":"Unity.VisualScripting.GetMember","$id":"32"},{"coroutine":false,"defaultValues":{},"position":{"x":-1032.0,"y":-1883.0},"guid":"fdaa3ed8-7b0d-4e27-9432-ae12fba7b8cc","$version":"A","$type":"Unity.VisualScripting.Update","$id":"35"},{"specifyFallback":false,"kind":"Application","defaultValues":{"name":{"$content":"Card_MoveTo","$type":"System.String"}},"position":{"x":-1098.0,"y":1246.0},"guid":"ea1ec5a0-7ab7-4a4a-bd42-467a52e4cb75","$version":"A","$type":"Unity.VisualScripting.GetVariable","$id":"37"},{"kind":"Graph","defaultValues":{"name":{"$content":"Last
      Height","$type":"System.String"}},"position":{"x":-753.0,"y":-2401.0},"guid":"51a738af-2893-4c41-98d5-871c068223ed","$version":"A","$type":"Unity.VisualScripting.SetVariable","$id":"39"},{"chainable":false,"member":{"name":"sortingOrder","parameterTypes":null,"targetType":"UnityEngine.SpriteRenderer","targetTypeName":"UnityEngine.SpriteRenderer","$version":"A"},"defaultValues":{"target":null,"input":{"$content":0,"$type":"System.Int32"}},"position":{"x":14.0,"y":-229.0},"guid":"ab74d565-053f-44ef-b897-54a6f62352f5","$version":"A","$type":"Unity.VisualScripting.SetMember","$id":"41"},{"kind":"Object","defaultValues":{"name":{"$content":"Height","$type":"System.String"},"object":null},"position":{"x":-532.0,"y":427.0},"guid":"947527e1-b76d-43ef-b54f-6203db33a30d","$version":"A","$type":"Unity.VisualScripting.SetVariable","$id":"44"},{"specifyFallback":false,"kind":"Application","defaultValues":{"name":{"$content":"Card_SetHeight","$type":"System.String"}},"position":{"x":-1028.0,"y":533.0},"guid":"59fba441-9db0-46fc-9393-0a03ad60ea8f","$version":"A","$type":"Unity.VisualScripting.GetVariable","$id":"46"},{"member":{"name":"x","parameterTypes":null,"targetType":"UnityEngine.Vector3","targetTypeName":"UnityEngine.Vector3","$version":"A"},"defaultValues":{"target":{"x":0.0,"y":0.0,"z":0.0,"$type":"UnityEngine.Vector3"}},"position":{"x":-80.0,"y":2079.0},"guid":"d6834c37-5044-49df-ad62-5c03359aaa38","$version":"A","$type":"Unity.VisualScripting.GetMember","$id":"48"},{"argumentCount":0,"coroutine":false,"defaultValues":{"target":null,"name":{"$content":"","$type":"System.String"}},"position":{"x":-779.0,"y":2000.0},"guid":"94b65470-1873-4ccd-b5ee-31a1d96dbc38","$version":"A","$type":"Unity.VisualScripting.CustomEvent","$id":"51"},{"inputCount":2,"defaultValues":{"1":{"$content":1.0,"$type":"System.Single"}},"position":{"x":412.0,"y":-16.0},"guid":"a2904130-1969-45dd-ab1a-2e783c964dd8","$version":"A","$type":"Unity.VisualScripting.ScalarSum","$id":"53"},{"member":{"name":"x","parameterTypes":null,"targetType":"UnityEngine.Vector3","targetTypeName":"UnityEngine.Vector3","$version":"A"},"defaultValues":{"target":{"x":0.0,"y":0.0,"z":0.0,"$type":"UnityEngine.Vector3"}},"position":{"x":310.0,"y":2162.0},"guid":"56b00c4d-73c0-4727-a2f8-f8177505298f","$version":"A","$type":"Unity.VisualScripting.GetMember","$id":"55"},{"chainable":false,"member":{"name":".ctor","parameterTypes":["System.Single","System.Single","System.Single"],"targetType":"UnityEngine.Vector3","targetTypeName":"UnityEngine.Vector3","$version":"A"},"defaultValues":{"%x":{"$content":0.0,"$type":"System.Single"},"%y":{"$content":0.0,"$type":"System.Single"},"%z":{"$content":0.0,"$type":"System.Single"}},"position":{"x":1545.0,"y":2194.0},"guid":"01267f54-9b0d-4860-9749-7f84f9a8305e","$version":"A","$type":"Unity.VisualScripting.InvokeMember","$id":"58"},{"specifyFallback":false,"kind":"Object","defaultValues":{"name":{"$content":"Height","$type":"System.String"},"object":null},"position":{"x":84.0,"y":-1829.0},"guid":"30982e5a-6be5-422d-ac18-c175711bf8f5","$version":"A","$type":"Unity.VisualScripting.GetVariable","$id":"61"},{"argumentCount":3,"defaultValues":{"name":{"$content":"","$type":"System.String"},"target":null},"position":{"x":665.0,"y":-1540.0},"guid":"e425d349-4b92-4cea-b413-934863817afe","$version":"A","$type":"Unity.VisualScripting.TriggerCustomEvent","$id":"63"},{"member":{"name":"deltaTime","parameterTypes":null,"targetType":"UnityEngine.Time","targetTypeName":"UnityEngine.Time","$version":"A"},"defaultValues":{},"position":{"x":669.0,"y":2429.0},"guid":"0b7d389c-dd18-459f-8df9-d2bd42b667d0","$version":"A","$type":"Unity.VisualScripting.GetMember","$id":"65"},{"specifyFallback":false,"kind":"Object","defaultValues":{"name":{"$content":"Height","$type":"System.String"},"object":null},"position":{"x":-267.0,"y":512.0},"guid":"0c88a3c8-af3f-4651-93f0-7a49ab21f2d2","$version":"A","$type":"Unity.VisualScripting.GetVariable","$id":"68"},{"chainable":false,"member":{"name":"GetKeyDown","parameterTypes":["UnityEngine.KeyCode"],"targetType":"UnityEngine.Input","targetTypeName":"UnityEngine.Input","$version":"A"},"defaultValues":{"%key":{"$content":"F","$type":"UnityEngine.KeyCode"}},"position":{"x":-472.0,"y":-1522.0},"guid":"fb2d52ac-2a38-4458-bedd-9dc9cef52b20","$version":"A","$type":"Unity.VisualScripting.InvokeMember","$id":"70"},{"specifyFallback":false,"kind":"Graph","defaultValues":{"name":{"$content":"Current
      Speed","$type":"System.String"}},"position":{"x":645.0,"y":2328.0},"guid":"0efbc9e4-5940-43f3-bf6c-271fbc31390c","$version":"A","$type":"Unity.VisualScripting.GetVariable","$id":"73"},{"inputCount":2,"defaultValues":{},"position":{"x":495.0,"y":-1373.0},"guid":"a83e48f3-b45a-43bd-a2ec-d5c2ae80fba5","$version":"A","$type":"Unity.VisualScripting.GenericSum","$id":"75"},{"member":{"name":"position","parameterTypes":null,"targetType":"UnityEngine.Transform","targetTypeName":"UnityEngine.Transform","$version":"A"},"defaultValues":{"target":null},"position":{"x":-271.0,"y":2088.0},"guid":"c225859f-af48-4327-933f-172be8d6735e","$version":"A","$type":"Unity.VisualScripting.GetMember","$id":"77"},{"specifyFallback":false,"kind":"Graph","defaultValues":{"name":{"$content":"Target
      Position","$type":"System.String"}},"position":{"x":80.0,"y":2221.0},"guid":"40d8e0a5-cd08-40ac-a391-669735287d32","$version":"A","$type":"Unity.VisualScripting.GetVariable","$id":"80"},{"member":{"name":"position","parameterTypes":null,"targetType":"UnityEngine.Transform","targetTypeName":"UnityEngine.Transform","$version":"A"},"defaultValues":{"target":null},"position":{"x":1136.0,"y":2472.0},"guid":"0d67600d-bafe-4cad-9e8c-4208dc549f6b","$version":"A","$type":"Unity.VisualScripting.GetMember","$id":"82"},{"member":{"name":"x","parameterTypes":null,"targetType":"UnityEngine.Vector3","targetTypeName":"UnityEngine.Vector3","$version":"A"},"defaultValues":{"target":{"x":0.0,"y":0.0,"z":0.0,"$type":"UnityEngine.Vector3"}},"position":{"x":143.0,"y":-1441.0},"guid":"404ce5fa-1fb5-4ab2-86b8-735cd09bf6f3","$version":"A","$type":"Unity.VisualScripting.GetMember","$id":"85"},{"coroutine":false,"defaultValues":{},"position":{"x":-1099.0,"y":-2397.0},"guid":"87e55c5f-b3de-42f7-8f9c-349e6d63ffea","$version":"A","$type":"Unity.VisualScripting.Start","$id":"88"},{"specifyFallback":false,"kind":"Graph","defaultValues":{"name":{"$content":"Target
      Height","$type":"System.String"}},"position":{"x":248.0,"y":2352.0},"guid":"6e72fa5c-6bac-4266-805b-650761daa6e6","$version":"A","$type":"Unity.VisualScripting.GetVariable","$id":"90"},{"member":{"name":"y","parameterTypes":null,"targetType":"UnityEngine.Vector3","targetTypeName":"UnityEngine.Vector3","$version":"A"},"defaultValues":{"target":{"x":0.0,"y":0.0,"z":0.0,"$type":"UnityEngine.Vector3"}},"position":{"x":1369.0,"y":2372.0},"guid":"b4eab05b-a0a2-41bb-bbe8-25b5baf9daa4","$version":"A","$type":"Unity.VisualScripting.GetMember","$id":"92"},{"argumentCount":3,"coroutine":false,"defaultValues":{"target":null,"name":{"$content":"","$type":"System.String"}},"position":{"x":-859.0,"y":1160.0},"guid":"ee6138fc-1921-47f7-9a43-1c82bd43c759","$version":"A","$type":"Unity.VisualScripting.CustomEvent","$id":"95"},{"chainable":false,"member":{"name":".ctor","parameterTypes":["System.Single","System.Single","System.Single"],"targetType":"UnityEngine.Vector3","targetTypeName":"UnityEngine.Vector3","$version":"A"},"defaultValues":{"%x":{"$content":0.0,"$type":"System.Single"},"%y":{"$content":0.0,"$type":"System.Single"},"%z":{"$content":0.0,"$type":"System.Single"}},"position":{"x":-3.0,"y":435.0},"guid":"3e77aa02-0c38-4303-ada2-17941d8e88ed","$version":"A","$type":"Unity.VisualScripting.InvokeMember","$id":"97"},{"chainable":false,"member":{"name":".ctor","parameterTypes":["System.Single","System.Single"],"targetType":"UnityEngine.Vector2","targetTypeName":"UnityEngine.Vector2","$version":"A"},"defaultValues":{"%x":{"$content":0.0,"$type":"System.Single"},"%y":{"$content":0.0,"$type":"System.Single"}},"position":{"x":305.0,"y":-1520.0},"guid":"1c91eb67-d671-47d3-a55d-19fa48408aca","$version":"A","$type":"Unity.VisualScripting.InvokeMember","$id":"100"},{"chainable":false,"member":{"name":"localScale","parameterTypes":null,"targetType":"UnityEngine.Transform","targetTypeName":"UnityEngine.Transform","$version":"A"},"defaultValues":{"target":null,"input":{"x":0.0,"y":0.0,"z":0.0,"$type":"UnityEngine.Vector3"}},"position":{"x":185.0,"y":435.0},"guid":"81105b9f-4438-4105-9848-a764910f3fae","$version":"A","$type":"Unity.VisualScripting.SetMember","$id":"103"},{"kind":"Graph","defaultValues":{"name":{"$content":"Target
      Height","$type":"System.String"}},"position":{"x":-298.0,"y":1238.0},"guid":"aeff46d5-76db-4555-9896-f0c9dceedf17","$version":"A","$type":"Unity.VisualScripting.SetVariable","$id":"106"},{"defaultValues":{},"position":{"x":-90.0,"y":-1909.0},"guid":"a1ca6a4b-ab24-4589-b3c5-8065d432e910","$version":"A","$type":"Unity.VisualScripting.If","$id":"108"},{"specifyFallback":false,"kind":"Application","defaultValues":{"name":{"$content":"Card_MoveTo","$type":"System.String"}},"position":{"x":442.0,"y":-1563.0},"guid":"b974d779-80b5-4331-a5f5-f6ce1fae24d9","$version":"A","$type":"Unity.VisualScripting.GetVariable","$id":"110"},{"argumentCount":1,"defaultValues":{"name":{"$content":"","$type":"System.String"},"target":null},"position":{"x":718.0,"y":-1929.0},"guid":"6a378567-4e03-4222-8614-065fdda9928f","$version":"A","$type":"Unity.VisualScripting.TriggerCustomEvent","$id":"112"},{"member":{"name":"value","parameterTypes":null,"targetType":"UnityEngine.Random","targetTypeName":"UnityEngine.Random","$version":"A"},"defaultValues":{},"position":{"x":309.0,"y":-1368.0},"guid":"44d02314-750c-4513-8053-c26ba63d8b10","$version":"A","$type":"Unity.VisualScripting.GetMember","$id":"114"},{"specifyFallback":false,"kind":"Object","defaultValues":{"name":{"$content":"Height","$type":"System.String"},"object":null},"position":{"x":-118.0,"y":2264.0},"guid":"28ff990b-10f5-463f-a01a-263f2d100847","$version":"A","$type":"Unity.VisualScripting.GetVariable","$id":"117"},{"member":{"name":"y","parameterTypes":null,"targetType":"UnityEngine.Vector3","targetTypeName":"UnityEngine.Vector3","$version":"A"},"defaultValues":{"target":{"x":0.0,"y":0.0,"z":0.0,"$type":"UnityEngine.Vector3"}},"position":{"x":-81.0,"y":2168.0},"guid":"08abdd16-15ba-440c-b013-310e63172193","$version":"A","$type":"Unity.VisualScripting.GetMember","$id":"119"},{"outputCount":3,"defaultValues":{},"position":{"x":-782.0,"y":-1910.0},"guid":"b258bf2c-7bcb-4b0d-a366-4224a40db617","$version":"A","$type":"Unity.VisualScripting.Sequence","$id":"122"},{"chainable":false,"member":{"name":".ctor","parameterTypes":["System.Single","System.Single","System.Single"],"targetType":"UnityEngine.Vector3","targetTypeName":"UnityEngine.Vector3","$version":"A"},"defaultValues":{"%x":{"$content":0.0,"$type":"System.Single"},"%y":{"$content":0.0,"$type":"System.Single"},"%z":{"$content":0.0,"$type":"System.Single"}},"position":{"x":81.0,"y":2001.0},"guid":"8ac5ab89-9034-4c35-ac2a-e31113d36c21","$version":"A","$type":"Unity.VisualScripting.InvokeMember","$id":"124"},{"member":{"name":"z","parameterTypes":null,"targetType":"UnityEngine.Vector3","targetTypeName":"UnityEngine.Vector3","$version":"A"},"defaultValues":{"target":{"x":0.0,"y":0.0,"z":0.0,"$type":"UnityEngine.Vector3"}},"position":{"x":1369.0,"y":2474.0},"guid":"95cebce4-242e-4470-a9f2-fed29102e092","$version":"A","$type":"Unity.VisualScripting.GetMember","$id":"127"},{"defaultValues":{},"position":{"x":-403.0,"y":2005.0},"guid":"258c416b-5001-4eae-bf7d-1b3ff90abd78","$version":"A","$type":"Unity.VisualScripting.If","$id":"130"},{"specifyFallback":false,"kind":"Object","defaultValues":{"name":{"$content":"Height","$type":"System.String"},"object":null},"position":{"x":-459.0,"y":-1817.0},"guid":"95d6c08b-6c56-4921-a7cb-9eeb71e2e828","$version":"A","$type":"Unity.VisualScripting.GetVariable","$id":"132"},{"type":"System.Single","value":{"$content":1.0,"$type":"System.Single"},"defaultValues":{},"position":{"x":333.0,"y":-1272.0},"guid":"f9136fb4-678e-4bee-89cd-133840d58dfd","$version":"A","$type":"Unity.VisualScripting.Literal","$id":"134"},{"chainable":false,"member":{"name":"ScreenToWorldPoint","parameterTypes":["UnityEngine.Vector3"],"targetType":"UnityEngine.Camera","targetTypeName":"UnityEngine.Camera","$version":"A"},"defaultValues":{"target":null,"%position":{"x":0.0,"y":0.0,"z":0.0,"$type":"UnityEngine.Vector3"}},"position":{"x":-96.0,"y":-1521.0},"guid":"dfa86cd8-455d-4d35-ba5a-c918e5772c49","$version":"A","$type":"Unity.VisualScripting.InvokeMember","$id":"136"},{"specifyFallback":false,"kind":"Graph","defaultValues":{"name":{"$content":"Card_ConsumeMove","$type":"System.String"}},"position":{"x":-1038.0,"y":2091.0},"guid":"0a41a082-40f7-4530-82f1-e141005162cf","$version":"A","$type":"Unity.VisualScripting.GetVariable","$id":"139"},{"type":"System.String","value":{"$content":"On
      Move","$type":"System.String"},"defaultValues":{},"position":{"x":2147.0,"y":2439.0},"guid":"9fc3e681-e841-44e9-8b84-b1f8e26771e3","$version":"A","$type":"Unity.VisualScripting.Literal","$id":"141"},{"kind":"Object","defaultValues":{"name":{"$content":"CardLayer","$type":"System.String"},"object":null},"position":{"x":-514.0,"y":-234.0},"guid":"f94d4e81-bead-4e16-a294-b24810bae9af","$version":"A","$type":"Unity.VisualScripting.SetVariable","$id":"143"},{"argumentCount":1,"coroutine":false,"defaultValues":{"target":null,"name":{"$content":"SetCardLayer","$type":"System.String"}},"position":{"x":-775.0,"y":424.0},"guid":"db361b78-e2be-46ae-935c-09c3610f99f5","$version":"A","$type":"Unity.VisualScripting.CustomEvent","$id":"145"},{"kind":"Graph","defaultValues":{"name":{"$content":"Current
      Speed","$type":"System.String"}},"position":{"x":-71.0,"y":1358.0},"guid":"2157c206-bfde-4b89-bd1c-f4120b9d924d","$version":"A","$type":"Unity.VisualScripting.SetVariable","$id":"147"},{"chainable":false,"member":{"name":"Log","parameterTypes":["System.Object"],"targetType":"UnityEngine.Debug","targetTypeName":"UnityEngine.Debug","$version":"A"},"defaultValues":{},"position":{"x":2322.0,"y":2353.0},"guid":"0629e2d7-d300-4ea1-a18a-a2a98feb2cc0","$version":"A","$type":"Unity.VisualScripting.InvokeMember","$id":"149"},{"specifyFallback":false,"kind":"Graph","defaultValues":{"name":{"$content":"Last
      Height","$type":"System.String"}},"position":{"x":-476.0,"y":-1689.0},"guid":"1f18d199-e596-466e-87c6-c9f7e5a2cf9e","$version":"A","$type":"Unity.VisualScripting.GetVariable","$id":"152"},{"chainable":false,"member":{"name":"position","parameterTypes":null,"targetType":"UnityEngine.Transform","targetTypeName":"UnityEngine.Transform","$version":"A"},"defaultValues":{"target":null,"input":{"x":0.0,"y":0.0,"z":0.0,"$type":"UnityEngine.Vector3"}},"position":{"x":1703.0,"y":2194.0},"guid":"b5c7071b-103d-4a68-857d-fd6fd8b4ab83","$version":"A","$type":"Unity.VisualScripting.SetMember","$id":"154"},{"member":{"name":"mousePosition","parameterTypes":null,"targetType":"UnityEngine.Input","targetTypeName":"UnityEngine.Input","$version":"A"},"defaultValues":{},"position":{"x":-348.0,"y":-1302.0},"guid":"5b4c22db-e898-4e21-a457-3134cc5eae07","$version":"A","$type":"Unity.VisualScripting.GetMember","$id":"157"},{"kind":"Graph","defaultValues":{"name":{"$content":"Last
      Height","$type":"System.String"}},"position":{"x":262.0,"y":-1915.0},"guid":"9b351aff-c73d-456f-968f-249100ed660e","$version":"A","$type":"Unity.VisualScripting.SetVariable","$id":"160"},{"kind":"Graph","defaultValues":{"name":{"$content":"Target
      Position","$type":"System.String"}},"position":{"x":-509.0,"y":1152.0},"guid":"be8d0d04-00b8-4da6-a9cd-965ac7e2e398","$version":"A","$type":"Unity.VisualScripting.SetVariable","$id":"162"},{"numeric":true,"defaultValues":{"b":{"$content":1.0,"$type":"System.Single"}},"position":{"x":1008.0,"y":1871.0},"guid":"ce4c54db-29bd-459c-85da-c2c6cb158fe3","$version":"A","$type":"Unity.VisualScripting.LessOrEqual","$id":"164"},{"specifyFallback":false,"kind":"Application","defaultValues":{"name":{"$content":"Card_SetHeight","$type":"System.String"}},"position":{"x":473.0,"y":-1819.0},"guid":"b1937edf-8dae-440a-9f86-35f21835772f","$version":"A","$type":"Unity.VisualScripting.GetVariable","$id":"166"},{"chainable":false,"member":{"name":".ctor","parameterTypes":["System.Single","System.Single","System.Single"],"targetType":"UnityEngine.Vector3","targetTypeName":"UnityEngine.Vector3","$version":"A"},"defaultValues":{"%x":{"$content":0.0,"$type":"System.Single"},"%y":{"$content":0.0,"$type":"System.Single"},"%z":{"$content":0.0,"$type":"System.Single"}},"position":{"x":494.0,"y":2103.0},"guid":"0f960816-4c2d-45f6-8e34-c4b90028b979","$version":"A","$type":"Unity.VisualScripting.InvokeMember","$id":"168"},{"member":{"name":"y","parameterTypes":null,"targetType":"UnityEngine.Vector3","targetTypeName":"UnityEngine.Vector3","$version":"A"},"defaultValues":{"target":{"x":0.0,"y":0.0,"z":0.0,"$type":"UnityEngine.Vector3"}},"position":{"x":142.0,"y":-1347.0},"guid":"c0d7bb4e-cdf7-4582-be50-c2113a859765","$version":"A","$type":"Unity.VisualScripting.GetMember","$id":"171"},{"member":{"name":"y","parameterTypes":null,"targetType":"UnityEngine.Vector3","targetTypeName":"UnityEngine.Vector3","$version":"A"},"defaultValues":{"target":{"x":0.0,"y":0.0,"z":0.0,"$type":"UnityEngine.Vector3"}},"position":{"x":309.0,"y":2251.0},"guid":"4fcc8fb4-68f7-4665-9393-d3af9ab079ba","$version":"A","$type":"Unity.VisualScripting.GetMember","$id":"174"},{"argumentCount":1,"defaultValues":{"name":{"$content":"","$type":"System.String"},"target":null},"position":{"x":1907.0,"y":2336.0},"guid":"483d02da-3f82-42a4-b2d7-6f2de2ff55da","$version":"A","$type":"Unity.VisualScripting.TriggerCustomEvent","$id":"177"},{"specifyFallback":false,"kind":"Application","defaultValues":{"name":{"$content":"Card_SetCardLayer","$type":"System.String"}},"position":{"x":-1032.0,"y":-125.0},"guid":"fdd7525a-76ed-480a-a113-a373d68415d1","$version":"A","$type":"Unity.VisualScripting.GetVariable","$id":"179"},{"chainable":false,"member":{"name":"sortingOrder","parameterTypes":null,"targetType":"UnityEngine.SpriteRenderer","targetTypeName":"UnityEngine.SpriteRenderer","$version":"A"},"defaultValues":{"target":null,"input":{"$content":0,"$type":"System.Int32"}},"position":{"x":618.0,"y":-229.0},"guid":"651c03b6-346d-4de3-8bfe-b6e7fcbdafce","$version":"A","$type":"Unity.VisualScripting.SetMember","$id":"181"},{"specifyFallback":false,"kind":"Object","defaultValues":{"name":{"$content":"Body","$type":"System.String"},"object":null},"position":{"x":-42.0,"y":604.0},"guid":"6da14eed-e3eb-4fb7-b268-36fa6431999c","$version":"A","$type":"Unity.VisualScripting.GetVariable","$id":"184"},{"type":"System.Single","value":{"$content":10.0,"$type":"System.Single"},"defaultValues":{},"position":{"x":515.0,"y":-1241.0},"guid":"d80887ca-da38-48be-ac8a-ea858332ab54","$version":"A","$type":"Unity.VisualScripting.Literal","$id":"186"},{"type":"System.Boolean","value":{"$content":false,"$type":"System.Boolean"},"defaultValues":{},"position":{"x":1330.0,"y":1829.0},"guid":"65e15cb5-5cd4-45ce-83bd-d53f48df4424","$version":"A","$type":"Unity.VisualScripting.Literal","$id":"188"},{"specifyFallback":false,"kind":"Object","defaultValues":{"name":{"$content":"CardLayer","$type":"System.String"},"object":null},"position":{"x":-235.0,"y":-28.0},"guid":"5631e018-1b80-4bde-9797-233f9d53278c","$version":"A","$type":"Unity.VisualScripting.GetVariable","$id":"190"},{"member":{"name":"z","parameterTypes":null,"targetType":"UnityEngine.Vector3","targetTypeName":"UnityEngine.Vector3","$version":"A"},"defaultValues":{"target":{"x":0.0,"y":0.0,"z":0.0,"$type":"UnityEngine.Vector3"}},"position":{"x":1367.0,"y":2593.0},"guid":"78e0a1ca-67f1-4b3e-9fe1-cef1d0736db2","$version":"A","$type":"Unity.VisualScripting.GetMember","$id":"192"},{"chainable":false,"member":{"name":"position","parameterTypes":null,"targetType":"UnityEngine.Transform","targetTypeName":"UnityEngine.Transform","$version":"A"},"defaultValues":{"target":null,"input":{"x":0.0,"y":0.0,"z":0.0,"$type":"UnityEngine.Vector3"}},"position":{"x":2260.0,"y":1796.0},"guid":"00ff1785-ac4e-4df1-b6a7-f11256bf31f7","$version":"A","$type":"Unity.VisualScripting.SetMember","$id":"195"},{"member":{"name":"main","parameterTypes":null,"targetType":"UnityEngine.Camera","targetTypeName":"UnityEngine.Camera","$version":"A"},"defaultValues":{},"position":{"x":-287.0,"y":-1397.0},"guid":"d529d406-9c53-40f6-9736-c35b8252d708","$version":"A","$type":"Unity.VisualScripting.GetMember","$id":"198"},{"specifyFallback":false,"kind":"Object","defaultValues":{"name":{"$content":"BackgroundSprite","$type":"System.String"},"object":null},"position":{"x":333.0,"y":-145.0},"guid":"a7e6642a-01b0-469b-81ef-9378540ebab2","$version":"A","$type":"Unity.VisualScripting.GetVariable","$id":"201"},{"specifyFallback":false,"kind":"Application","defaultValues":{"name":{"$content":"Card_SetHeight","$type":"System.String"}},"position":{"x":1667.0,"y":2371.0},"guid":"ce45ef4a-88cf-42bf-b0a4-102309e80cd5","$version":"A","$type":"Unity.VisualScripting.GetVariable","$id":"203"},{"specifyFallback":false,"kind":"Graph","defaultValues":{"name":{"$content":"Card_ConsumeMove","$type":"System.String"}},"position":{"x":-770.0,"y":-1116.0},"guid":"e51f5952-3984-4e6f-910c-3bb549a70ed9","$version":"A","$type":"Unity.VisualScripting.GetVariable","$id":"205"},{"type":"System.Boolean","value":{"$content":true,"$type":"System.Boolean"},"defaultValues":{},"position":{"x":167.0,"y":1440.0},"guid":"17e2bcb7-9065-411f-ae67-d16cf92d9bca","$version":"A","$type":"Unity.VisualScripting.Literal","$id":"207"},{"specifyFallback":false,"kind":"Object","defaultValues":{"name":{"$content":"Height","$type":"System.String"},"object":null},"position":{"x":-931.0,"y":-2315.0},"guid":"a0755cb1-fbef-41bc-ab08-3824f861608f","$version":"A","$type":"Unity.VisualScripting.GetVariable","$id":"209"},{"kind":"Graph","defaultValues":{"name":{"$content":"Is
      Move","$type":"System.String"}},"position":{"x":1521.0,"y":1791.0},"guid":"8d95518e-6b3d-46a4-96d2-695be730e981","$version":"A","$type":"Unity.VisualScripting.SetVariable","$id":"211"},{"specifyFallback":false,"kind":"Graph","defaultValues":{"name":{"$content":"Is
      Move","$type":"System.String"}},"position":{"x":-585.0,"y":2096.0},"guid":"9c8722e4-4961-4fce-93d7-76680e8ed1e0","$version":"A","$type":"Unity.VisualScripting.GetVariable","$id":"213"},{"chainable":false,"member":{"name":"Distance","parameterTypes":["UnityEngine.Vector3","UnityEngine.Vector3"],"targetType":"UnityEngine.Vector3","targetTypeName":"UnityEngine.Vector3","$version":"A"},"defaultValues":{"%a":{"x":0.0,"y":0.0,"z":0.0,"$type":"UnityEngine.Vector3"},"%b":{"x":0.0,"y":0.0,"z":0.0,"$type":"UnityEngine.Vector3"}},"position":{"x":851.0,"y":1932.0},"guid":"eca9582f-ca57-4965-a025-7728fdde7c4f","$version":"A","$type":"Unity.VisualScripting.InvokeMember","$id":"215"},{"kind":"Graph","defaultValues":{"name":{"$content":"Is
      Move","$type":"System.String"}},"position":{"x":323.0,"y":1358.0},"guid":"cdf975e5-1106-42b9-a6d0-64ef2d92ac7c","$version":"A","$type":"Unity.VisualScripting.SetVariable","$id":"218"},{"specifyFallback":false,"kind":"Application","defaultValues":{"name":{"$content":"Card_SetHeight","$type":"System.String"}},"position":{"x":2462.0,"y":1875.0},"guid":"a895cb65-cbd1-4c69-a077-743d157bc025","$version":"A","$type":"Unity.VisualScripting.GetVariable","$id":"220"},{"defaultValues":{"b":{"x":1.0,"y":1.0,"z":0.0,"$type":"UnityEngine.Vector3"}},"position":{"x":648.0,"y":2200.0},"guid":"4f14b15f-875f-4f78-a1b5-8d73b27b0fce","$version":"A","$type":"Unity.VisualScripting.Vector3Multiply","$id":"222"},{"argumentCount":0,"defaultValues":{"name":{"$content":"","$type":"System.String"},"target":null},"position":{"x":-483.0,"y":-1185.0},"guid":"474b0886-c593-47f6-ae11-5068331b1264","$version":"A","$type":"Unity.VisualScripting.TriggerCustomEvent","$id":"224"},{"specifyFallback":false,"kind":"Object","defaultValues":{"name":{"$content":"CardLayer","$type":"System.String"},"object":null},"position":{"x":219.0,"y":-17.0},"guid":"c0d797a4-c5a6-4384-b96c-6368c447e037","$version":"A","$type":"Unity.VisualScripting.GetVariable","$id":"226"},{"member":{"name":"x","parameterTypes":null,"targetType":"UnityEngine.Vector3","targetTypeName":"UnityEngine.Vector3","$version":"A"},"defaultValues":{"target":{"x":0.0,"y":0.0,"z":0.0,"$type":"UnityEngine.Vector3"}},"position":{"x":1890.0,"y":1870.0},"guid":"7ef98d01-d7ba-4b2d-ae9a-c263bdf98178","$version":"A","$type":"Unity.VisualScripting.GetMember","$id":"228"},{"member":{"name":"y","parameterTypes":null,"targetType":"UnityEngine.Vector3","targetTypeName":"UnityEngine.Vector3","$version":"A"},"defaultValues":{"target":{"x":0.0,"y":0.0,"z":0.0,"$type":"UnityEngine.Vector3"}},"position":{"x":1888.0,"y":1972.0},"guid":"b1ee4bb5-e983-488b-a05b-858f51bf0acc","$version":"A","$type":"Unity.VisualScripting.GetMember","$id":"231"},{"member":{"name":"position","parameterTypes":null,"targetType":"UnityEngine.Transform","targetTypeName":"UnityEngine.Transform","$version":"A"},"defaultValues":{"target":null},"position":{"x":1703.0,"y":2072.0},"guid":"9c7b336f-b351-476a-96b5-18e2c2534ba9","$version":"A","$type":"Unity.VisualScripting.GetMember","$id":"234"},{"member":{"name":"z","parameterTypes":null,"targetType":"UnityEngine.Vector3","targetTypeName":"UnityEngine.Vector3","$version":"A"},"defaultValues":{"target":{"x":0.0,"y":0.0,"z":0.0,"$type":"UnityEngine.Vector3"}},"position":{"x":1888.0,"y":2074.0},"guid":"7db46ac8-15b3-47a9-8e88-d8579b72dadd","$version":"A","$type":"Unity.VisualScripting.GetMember","$id":"237"},{"chainable":false,"member":{"name":".ctor","parameterTypes":["System.Single","System.Single","System.Single"],"targetType":"UnityEngine.Vector3","targetTypeName":"UnityEngine.Vector3","$version":"A"},"defaultValues":{"%x":{"$content":0.0,"$type":"System.Single"},"%y":{"$content":0.0,"$type":"System.Single"},"%z":{"$content":0.0,"$type":"System.Single"}},"position":{"x":2064.0,"y":1794.0},"guid":"7068eed1-db69-4e24-9e68-58704f0b9ddf","$version":"A","$type":"Unity.VisualScripting.InvokeMember","$id":"240"},{"defaultValues":{"b":{"x":1.0,"y":1.0,"z":0.0,"$type":"UnityEngine.Vector3"}},"position":{"x":430.0,"y":1955.0},"guid":"07761604-5c58-4fc6-9444-4ecfb61f57fc","$version":"A","$type":"Unity.VisualScripting.Vector3Multiply","$id":"243"},{"argumentCount":1,"defaultValues":{"name":{"$content":"","$type":"System.String"},"target":null},"position":{"x":2700.0,"y":1778.0},"guid":"346637bd-69a4-4d87-80e4-573b0ea29b3e","$version":"A","$type":"Unity.VisualScripting.TriggerCustomEvent","$id":"245"},{"specifyFallback":false,"kind":"Graph","defaultValues":{"name":{"$content":"Target
      Height","$type":"System.String"}},"position":{"x":2470.0,"y":1980.0},"guid":"7e523f00-5dda-4fd2-85c3-68c8f17beb0b","$version":"A","$type":"Unity.VisualScripting.GetVariable","$id":"247"},{"type":"System.String","value":{"$content":"Stop
      Move","$type":"System.String"},"defaultValues":{},"position":{"x":2926.0,"y":1885.0},"guid":"b14c6075-02ad-4860-b8f6-8330abc72b0b","$version":"A","$type":"Unity.VisualScripting.Literal","$id":"249"},{"chainable":false,"member":{"name":"Log","parameterTypes":["System.Object"],"targetType":"UnityEngine.Debug","targetTypeName":"UnityEngine.Debug","$version":"A"},"defaultValues":{},"position":{"x":3101.0,"y":1799.0},"guid":"79bc770a-1145-4166-bd99-bdbc05305e1b","$version":"A","$type":"Unity.VisualScripting.InvokeMember","$id":"251"},{"defaultValues":{"a":{"x":0.0,"y":0.0,"z":0.0,"$type":"UnityEngine.Vector3"},"b":{"x":1.0,"y":1.0,"z":1.0,"$type":"UnityEngine.Vector3"},"t":{"$content":0.0,"$type":"System.Single"}},"position":{"x":1107.0,"y":2021.0},"guid":"2dcb6399-a702-4685-ad10-3d6818b1b62f","$version":"A","$type":"Unity.VisualScripting.Vector3Lerp","$id":"254"},{"specifyFallback":false,"kind":"Graph","defaultValues":{"name":{"$content":"Target
      Height","$type":"System.String"}},"position":{"x":432.0,"y":1842.0},"guid":"19947f9d-d8b9-4249-b30f-896928c51ace","$version":"A","$type":"Unity.VisualScripting.GetVariable","$id":"256"},{"specifyFallback":false,"kind":"Object","defaultValues":{"name":{"$content":"Height","$type":"System.String"},"object":null},"position":{"x":462.0,"y":1717.0},"guid":"85142ea5-6370-44c5-bbc5-f0135546762a","$version":"A","$type":"Unity.VisualScripting.GetVariable","$id":"258"},{"defaultValues":{"minuend":{"$content":1.0,"$type":"System.Single"},"subtrahend":{"$content":1.0,"$type":"System.Single"}},"position":{"x":671.0,"y":1749.0},"guid":"bf319b1d-3baf-4326-9f1b-8b2cd9bc773b","$version":"A","$type":"Unity.VisualScripting.ScalarSubtract","$id":"260"},{"numeric":true,"defaultValues":{"b":{"$content":0.1,"$type":"System.Single"}},"position":{"x":1007.0,"y":1749.0},"guid":"f1e56ec7-81e6-4753-b638-74abe2a1e0c0","$version":"A","$type":"Unity.VisualScripting.LessOrEqual","$id":"262"},{"defaultValues":{},"position":{"x":1189.0,"y":1850.0},"guid":"ddf6e60f-ec16-46bb-809c-abb8da4f7ca7","$version":"A","$type":"Unity.VisualScripting.And","$id":"264"},{"defaultValues":{},"position":{"x":840.0,"y":1749.0},"guid":"5f57be81-b1a5-4cd4-b417-3136acf3b5aa","$version":"A","$type":"Unity.VisualScripting.ScalarAbsolute","$id":"266"},{"sourceUnit":{"$ref":"211"},"sourceKey":"assigned","destinationUnit":{"$ref":"240"},"destinationKey":"enter","guid":"cda2ec2c-b73e-488e-a522-7e26f15fb01a","$type":"Unity.VisualScripting.ControlConnection"},{"sourceUnit":{"$ref":"41"},"sourceKey":"assigned","destinationUnit":{"$ref":"181"},"destinationKey":"assign","guid":"a1b06498-b21b-468f-b940-55ae69a1199d","$type":"Unity.VisualScripting.ControlConnection"},{"sourceUnit":{"$ref":"100"},"sourceKey":"exit","destinationUnit":{"$ref":"63"},"destinationKey":"enter","guid":"8effe737-9120-4667-b190-e50dbf93a9c7","$type":"Unity.VisualScripting.ControlConnection"},{"sourceUnit":{"$ref":"145"},"sourceKey":"trigger","destinationUnit":{"$ref":"44"},"destinationKey":"assign","guid":"0ec211d1-ad6c-4508-b2f7-23196a95ab08","$type":"Unity.VisualScripting.ControlConnection"},{"sourceUnit":{"$ref":"130"},"sourceKey":"ifTrue","destinationUnit":{"$ref":"124"},"destinationKey":"enter","guid":"3199ee2e-0854-460d-9866-83bd1c9a5451","$type":"Unity.VisualScripting.ControlConnection"},{"sourceUnit":{"$ref":"147"},"sourceKey":"assigned","destinationUnit":{"$ref":"218"},"destinationKey":"assign","guid":"18dcaad3-3fa7-44ce-80f6-cbbe8fcf4c9a","$type":"Unity.VisualScripting.ControlConnection"},{"sourceUnit":{"$ref":"58"},"sourceKey":"exit","destinationUnit":{"$ref":"154"},"destinationKey":"assign","guid":"d19a3be1-9674-414e-82a2-63fdeebde578","$type":"Unity.VisualScripting.ControlConnection"},{"sourceUnit":{"$ref":"124"},"sourceKey":"exit","destinationUnit":{"$ref":"168"},"destinationKey":"enter","guid":"b6c93abc-6a34-402d-8c79-02e0fa47d4bf","$type":"Unity.VisualScripting.ControlConnection"},{"sourceUnit":{"$ref":"162"},"sourceKey":"assigned","destinationUnit":{"$ref":"106"},"destinationKey":"assign","guid":"7d90ddc2-5948-4915-b3f6-600828327b51","$type":"Unity.VisualScripting.ControlConnection"},{"sourceUnit":{"$ref":"44"},"sourceKey":"assigned","destinationUnit":{"$ref":"97"},"destinationKey":"enter","guid":"dd700d5f-ae07-4068-948f-d4c03c561227","$type":"Unity.VisualScripting.ControlConnection"},{"sourceUnit":{"$ref":"88"},"sourceKey":"trigger","destinationUnit":{"$ref":"39"},"destinationKey":"assign","guid":"cfcd562e-de0c-44f8-a6b6-ed5c8e87d14b","$type":"Unity.VisualScripting.ControlConnection"},{"sourceUnit":{"$ref":"16"},"sourceKey":"trigger","destinationUnit":{"$ref":"143"},"destinationKey":"assign","guid":"8b3dd837-8920-438b-b7b5-74ba69af365f","$type":"Unity.VisualScripting.ControlConnection"},{"sourceUnit":{"$ref":"143"},"sourceKey":"assigned","destinationUnit":{"$ref":"41"},"destinationKey":"assign","guid":"dcc1e52c-fa2f-4cb0-a699-cf21f260a040","$type":"Unity.VisualScripting.ControlConnection"},{"sourceUnit":{"$ref":"215"},"sourceKey":"exit","destinationUnit":{"$ref":"20"},"destinationKey":"enter","guid":"7ee809d4-1c7a-49e1-a1f3-cac22c2cab3e","$type":"Unity.VisualScripting.ControlConnection"},{"sourceUnit":{"$ref":"168"},"sourceKey":"exit","destinationUnit":{"$ref":"215"},"destinationKey":"enter","guid":"9893fdf7-e8f1-4344-ab5d-e99d671721b0","$type":"Unity.VisualScripting.ControlConnection"},{"sourceUnit":{"$ref":"95"},"sourceKey":"trigger","destinationUnit":{"$ref":"162"},"destinationKey":"assign","guid":"ec82c8f6-2bc1-417f-a704-55fbd0cb0d7a","$type":"Unity.VisualScripting.ControlConnection"},{"sourceUnit":{"$ref":"35"},"sourceKey":"trigger","destinationUnit":{"$ref":"122"},"destinationKey":"enter","guid":"add3397f-5f0c-441a-871d-28c703ff1496","$type":"Unity.VisualScripting.ControlConnection"},{"sourceUnit":{"$ref":"122"},"sourceKey":"0","destinationUnit":{"$ref":"108"},"destinationKey":"enter","guid":"dc729035-9b75-4322-a8db-58b5d5b2a399","$type":"Unity.VisualScripting.ControlConnection"},{"sourceUnit":{"$ref":"122"},"sourceKey":"2","destinationUnit":{"$ref":"224"},"destinationKey":"enter","guid":"6be80c0a-d7e9-4781-91f4-eb28f582e073","$type":"Unity.VisualScripting.ControlConnection"},{"sourceUnit":{"$ref":"51"},"sourceKey":"trigger","destinationUnit":{"$ref":"130"},"destinationKey":"enter","guid":"f5a75b8d-914e-448f-b9c4-29363dafb68b","$type":"Unity.VisualScripting.ControlConnection"},{"sourceUnit":{"$ref":"20"},"sourceKey":"ifTrue","destinationUnit":{"$ref":"211"},"destinationKey":"assign","guid":"2b8c663c-547e-4d72-8e14-3d0db9b7bb5a","$type":"Unity.VisualScripting.ControlConnection"},{"sourceUnit":{"$ref":"160"},"sourceKey":"assigned","destinationUnit":{"$ref":"112"},"destinationKey":"enter","guid":"46734743-521a-456f-b520-1214445f3c9a","$type":"Unity.VisualScripting.ControlConnection"},{"sourceUnit":{"$ref":"97"},"sourceKey":"exit","destinationUnit":{"$ref":"103"},"destinationKey":"assign","guid":"02a3b87a-9416-42f0-a44f-69fe117755f4","$type":"Unity.VisualScripting.ControlConnection"},{"sourceUnit":{"$ref":"136"},"sourceKey":"exit","destinationUnit":{"$ref":"100"},"destinationKey":"enter","guid":"9e2dbf5b-64ad-4a48-bf41-dad2cb0bca2f","$type":"Unity.VisualScripting.ControlConnection"},{"sourceUnit":{"$ref":"70"},"sourceKey":"exit","destinationUnit":{"$ref":"22"},"destinationKey":"enter","guid":"d3c49472-c5f5-4c87-9c63-67770d6e8fd1","$type":"Unity.VisualScripting.ControlConnection"},{"sourceUnit":{"$ref":"240"},"sourceKey":"exit","destinationUnit":{"$ref":"195"},"destinationKey":"assign","guid":"39f511bc-7099-4ba9-8c3b-bd09bdb57fed","$type":"Unity.VisualScripting.ControlConnection"},{"sourceUnit":{"$ref":"106"},"sourceKey":"assigned","destinationUnit":{"$ref":"147"},"destinationKey":"assign","guid":"63a3c49e-5b3c-48d4-af89-0220d3353f7e","$type":"Unity.VisualScripting.ControlConnection"},{"sourceUnit":{"$ref":"195"},"sourceKey":"assigned","destinationUnit":{"$ref":"245"},"destinationKey":"enter","guid":"944455fe-95f1-4974-8913-272b2d443a95","$type":"Unity.VisualScripting.ControlConnection"},{"sourceUnit":{"$ref":"177"},"sourceKey":"exit","destinationUnit":{"$ref":"149"},"destinationKey":"enter","guid":"8b5ce40e-8c53-4357-ba74-09889085d575","$type":"Unity.VisualScripting.ControlConnection"},{"sourceUnit":{"$ref":"154"},"sourceKey":"assigned","destinationUnit":{"$ref":"177"},"destinationKey":"enter","guid":"795dc7b6-b0bd-4e24-9582-23771252d30c","$type":"Unity.VisualScripting.ControlConnection"},{"sourceUnit":{"$ref":"22"},"sourceKey":"ifTrue","destinationUnit":{"$ref":"136"},"destinationKey":"enter","guid":"7b0e7f8b-985e-4af7-9cd2-1da8919b9eb3","$type":"Unity.VisualScripting.ControlConnection"},{"sourceUnit":{"$ref":"108"},"sourceKey":"ifTrue","destinationUnit":{"$ref":"160"},"destinationKey":"assign","guid":"ec6038cf-a9ae-4e9f-9972-66e54ffe6112","$type":"Unity.VisualScripting.ControlConnection"},{"sourceUnit":{"$ref":"20"},"sourceKey":"ifFalse","destinationUnit":{"$ref":"58"},"destinationKey":"enter","guid":"2c7d5b10-c7a1-4882-ab03-30210541d668","$type":"Unity.VisualScripting.ControlConnection"},{"sourceUnit":{"$ref":"245"},"sourceKey":"exit","destinationUnit":{"$ref":"251"},"destinationKey":"enter","guid":"bb01d374-0501-4be5-aba1-abd6641bd3f2","$type":"Unity.VisualScripting.ControlConnection"},{"sourceUnit":{"$ref":"134"},"sourceKey":"output","destinationUnit":{"$ref":"75"},"destinationKey":"1","guid":"1eec44de-0444-4c4e-b0a8-02d6f95da6c6","$type":"Unity.VisualScripting.ValueConnection"},{"sourceUnit":{"$ref":"228"},"sourceKey":"value","destinationUnit":{"$ref":"240"},"destinationKey":"%x","guid":"815ac079-15a6-4ac0-83bb-96c55d45bf6f","$type":"Unity.VisualScripting.ValueConnection"},{"sourceUnit":{"$ref":"97"},"sourceKey":"result","destinationUnit":{"$ref":"103"},"destinationKey":"input","guid":"c36a5409-9158-4be3-91f3-b29d5b74467f","$type":"Unity.VisualScripting.ValueConnection"},{"sourceUnit":{"$ref":"18"},"sourceKey":"value","destinationUnit":{"$ref":"41"},"destinationKey":"target","guid":"ed7db981-b973-4df8-b466-23a008bd9f05","$type":"Unity.VisualScripting.ValueConnection"},{"sourceUnit":{"$ref":"119"},"sourceKey":"value","destinationUnit":{"$ref":"124"},"destinationKey":"%y","guid":"24722d54-a0e6-4985-b5a7-164cc8d7a7ef","$type":"Unity.VisualScripting.ValueConnection"},{"sourceUnit":{"$ref":"92"},"sourceKey":"value","destinationUnit":{"$ref":"58"},"destinationKey":"%y","guid":"e966fb5a-2b10-4545-b8c8-ac051cd8cf3c","$type":"Unity.VisualScripting.ValueConnection"},{"sourceUnit":{"$ref":"237"},"sourceKey":"value","destinationUnit":{"$ref":"240"},"destinationKey":"%z","guid":"34f92ef0-01d9-45ed-b762-e54edb9e11f4","$type":"Unity.VisualScripting.ValueConnection"},{"sourceUnit":{"$ref":"24"},"sourceKey":"notEqual","destinationUnit":{"$ref":"108"},"destinationKey":"condition","guid":"b2445708-ba2c-4423-ac37-23b1464049b2","$type":"Unity.VisualScripting.ValueConnection"},{"sourceUnit":{"$ref":"186"},"sourceKey":"output","destinationUnit":{"$ref":"63"},"destinationKey":"argument_2","guid":"1c3132b2-2331-4226-ae77-580148686ea5","$type":"Unity.VisualScripting.ValueConnection"},{"sourceUnit":{"$ref":"198"},"sourceKey":"value","destinationUnit":{"$ref":"136"},"destinationKey":"target","guid":"feec2cc5-0d26-4283-bce3-5c47bb266b15","$type":"Unity.VisualScripting.ValueConnection"},{"sourceUnit":{"$ref":"114"},"sourceKey":"value","destinationUnit":{"$ref":"75"},"destinationKey":"0","guid":"7ea5a377-eafc-4363-9d7e-385240168134","$type":"Unity.VisualScripting.ValueConnection"},{"sourceUnit":{"$ref":"117"},"sourceKey":"value","destinationUnit":{"$ref":"124"},"destinationKey":"%z","guid":"51ca3d80-efa1-454d-b8d2-7fbdc0efba96","$type":"Unity.VisualScripting.ValueConnection"},{"sourceUnit":{"$ref":"157"},"sourceKey":"value","destinationUnit":{"$ref":"136"},"destinationKey":"%position","guid":"14dbd24e-99e2-4982-a391-c9d026fcfd72","$type":"Unity.VisualScripting.ValueConnection"},{"sourceUnit":{"$ref":"75"},"sourceKey":"sum","destinationUnit":{"$ref":"63"},"destinationKey":"argument_1","guid":"b48486d6-69fd-453c-b70b-4ff995b3ac3f","$type":"Unity.VisualScripting.ValueConnection"},{"sourceUnit":{"$ref":"166"},"sourceKey":"value","destinationUnit":{"$ref":"112"},"destinationKey":"name","guid":"0bf132fc-8df6-4c59-98e5-cac5e004fefe","$type":"Unity.VisualScripting.ValueConnection"},{"sourceUnit":{"$ref":"53"},"sourceKey":"sum","destinationUnit":{"$ref":"181"},"destinationKey":"input","guid":"9f14e3b9-e701-4191-9f5b-100f9b9b3aa2","$type":"Unity.VisualScripting.ValueConnection"},{"sourceUnit":{"$ref":"37"},"sourceKey":"value","destinationUnit":{"$ref":"95"},"destinationKey":"name","guid":"9325b6a9-2b1d-4ea0-943e-4d1cf9767c6d","$type":"Unity.VisualScripting.ValueConnection"},{"sourceUnit":{"$ref":"139"},"sourceKey":"value","destinationUnit":{"$ref":"51"},"destinationKey":"name","guid":"6aed9521-c192-4e99-9447-6a1f3efc5995","$type":"Unity.VisualScripting.ValueConnection"},{"sourceUnit":{"$ref":"226"},"sourceKey":"value","destinationUnit":{"$ref":"53"},"destinationKey":"0","guid":"973502e1-faaa-4f1e-a7bd-18aa59b43424","$type":"Unity.VisualScripting.ValueConnection"},{"sourceUnit":{"$ref":"184"},"sourceKey":"value","destinationUnit":{"$ref":"103"},"destinationKey":"target","guid":"47f06342-b30e-4963-8ff8-6eb2317c530d","$type":"Unity.VisualScripting.ValueConnection"},{"sourceUnit":{"$ref":"205"},"sourceKey":"value","destinationUnit":{"$ref":"224"},"destinationKey":"name","guid":"4fc5e042-2803-4f46-834c-50bf26b888cf","$type":"Unity.VisualScripting.ValueConnection"},{"sourceUnit":{"$ref":"174"},"sourceKey":"value","destinationUnit":{"$ref":"168"},"destinationKey":"%y","guid":"70aa769a-835d-4b1b-b854-9a63a30d5e61","$type":"Unity.VisualScripting.ValueConnection"},{"sourceUnit":{"$ref":"61"},"sourceKey":"value","destinationUnit":{"$ref":"160"},"destinationKey":"input","guid":"bad1bbed-bfae-4288-b7c0-515f025fa2df","$type":"Unity.VisualScripting.ValueConnection"},{"sourceUnit":{"$ref":"68"},"sourceKey":"value","destinationUnit":{"$ref":"97"},"destinationKey":"%z","guid":"157ac3f4-0284-456f-8763-0c628dfb75ba","$type":"Unity.VisualScripting.ValueConnection"},{"sourceUnit":{"$ref":"68"},"sourceKey":"value","destinationUnit":{"$ref":"97"},"destinationKey":"%x","guid":"f9e8dc6c-7053-49f6-9aa6-0be0e2fdd255","$type":"Unity.VisualScripting.ValueConnection"},{"sourceUnit":{"$ref":"190"},"sourceKey":"value","destinationUnit":{"$ref":"41"},"destinationKey":"input","guid":"1ae04217-bbfb-4678-a1f1-661e90204902","$type":"Unity.VisualScripting.ValueConnection"},{"sourceUnit":{"$ref":"26"},"sourceKey":"value","destinationUnit":{"$ref":"228"},"destinationKey":"target","guid":"dfdf4efe-9cae-4eeb-a74b-dca34ac7f649","$type":"Unity.VisualScripting.ValueConnection"},{"sourceUnit":{"$ref":"188"},"sourceKey":"output","destinationUnit":{"$ref":"211"},"destinationKey":"input","guid":"8688794e-a9ac-4149-bb55-ca804d3435b0","$type":"Unity.VisualScripting.ValueConnection"},{"sourceUnit":{"$ref":"16"},"sourceKey":"argument_0","destinationUnit":{"$ref":"143"},"destinationKey":"input","guid":"48366563-0e3a-4e53-9ee7-bf33351d3dd9","$type":"Unity.VisualScripting.ValueConnection"},{"sourceUnit":{"$ref":"136"},"sourceKey":"result","destinationUnit":{"$ref":"85"},"destinationKey":"target","guid":"62b31e38-31ed-4b11-a97b-a4ad4c7a1fb1","$type":"Unity.VisualScripting.ValueConnection"},{"sourceUnit":{"$ref":"192"},"sourceKey":"value","destinationUnit":{"$ref":"177"},"destinationKey":"argument_0","guid":"67d6207b-7e87-4ca6-ad94-76ba9f8e4ef0","$type":"Unity.VisualScripting.ValueConnection"},{"sourceUnit":{"$ref":"110"},"sourceKey":"value","destinationUnit":{"$ref":"63"},"destinationKey":"name","guid":"a1d4aa85-6f2b-4a1f-86d5-a5d3b85f8262","$type":"Unity.VisualScripting.ValueConnection"},{"sourceUnit":{"$ref":"26"},"sourceKey":"value","destinationUnit":{"$ref":"231"},"destinationKey":"target","guid":"1585ed9b-cc8f-4365-8052-76a0ba0e7cfe","$type":"Unity.VisualScripting.ValueConnection"},{"sourceUnit":{"$ref":"152"},"sourceKey":"value","destinationUnit":{"$ref":"24"},"destinationKey":"b","guid":"9215307e-69f8-4ba4-8988-dc5291ab8382","$type":"Unity.VisualScripting.ValueConnection"},{"sourceUnit":{"$ref":"171"},"sourceKey":"value","destinationUnit":{"$ref":"100"},"destinationKey":"%y","guid":"ce4d617f-988b-4786-801f-7a8a0b668060","$type":"Unity.VisualScripting.ValueConnection"},{"sourceUnit":{"$ref":"100"},"sourceKey":"result","destinationUnit":{"$ref":"63"},"destinationKey":"argument_0","guid":"b5e16177-496d-4850-887c-07653d81aece","$type":"Unity.VisualScripting.ValueConnection"},{"sourceUnit":{"$ref":"132"},"sourceKey":"value","destinationUnit":{"$ref":"24"},"destinationKey":"a","guid":"4cda3b14-96ab-48a6-8776-07575ac15bd8","$type":"Unity.VisualScripting.ValueConnection"},{"sourceUnit":{"$ref":"240"},"sourceKey":"result","destinationUnit":{"$ref":"195"},"destinationKey":"input","guid":"11abb9dc-5d41-4304-a247-f1d7cd64d4bd","$type":"Unity.VisualScripting.ValueConnection"},{"sourceUnit":{"$ref":"90"},"sourceKey":"value","destinationUnit":{"$ref":"168"},"destinationKey":"%z","guid":"c87bb08b-625c-4d53-ac5c-14fdb18455c4","$type":"Unity.VisualScripting.ValueConnection"},{"sourceUnit":{"$ref":"179"},"sourceKey":"value","destinationUnit":{"$ref":"16"},"destinationKey":"name","guid":"7240f507-4e9d-4d70-84c4-fefd348e2582","$type":"Unity.VisualScripting.ValueConnection"},{"sourceUnit":{"$ref":"85"},"sourceKey":"value","destinationUnit":{"$ref":"100"},"destinationKey":"%x","guid":"600b6816-da7e-4aad-905c-9b66b2663172","$type":"Unity.VisualScripting.ValueConnection"},{"sourceUnit":{"$ref":"203"},"sourceKey":"value","destinationUnit":{"$ref":"177"},"destinationKey":"name","guid":"1f21a783-c956-470e-afa7-f5e876699e4d","$type":"Unity.VisualScripting.ValueConnection"},{"sourceUnit":{"$ref":"30"},"sourceKey":"value","destinationUnit":{"$ref":"112"},"destinationKey":"argument_0","guid":"30c081d4-3036-4e82-8ec9-d0553c141731","$type":"Unity.VisualScripting.ValueConnection"},{"sourceUnit":{"$ref":"136"},"sourceKey":"result","destinationUnit":{"$ref":"171"},"destinationKey":"target","guid":"ce65f9d5-f660-408f-942a-78f7bab7f5e4","$type":"Unity.VisualScripting.ValueConnection"},{"sourceUnit":{"$ref":"141"},"sourceKey":"output","destinationUnit":{"$ref":"149"},"destinationKey":"%message","guid":"b0532e9a-6b05-496c-b331-5a6488e91b37","$type":"Unity.VisualScripting.ValueConnection"},{"sourceUnit":{"$ref":"201"},"sourceKey":"value","destinationUnit":{"$ref":"181"},"destinationKey":"target","guid":"62827178-37ab-4ce4-b0c8-32706a7d22a6","$type":"Unity.VisualScripting.ValueConnection"},{"sourceUnit":{"$ref":"231"},"sourceKey":"value","destinationUnit":{"$ref":"240"},"destinationKey":"%y","guid":"03d2ad9a-01dd-41b9-9321-6d903a3fe581","$type":"Unity.VisualScripting.ValueConnection"},{"sourceUnit":{"$ref":"213"},"sourceKey":"value","destinationUnit":{"$ref":"130"},"destinationKey":"condition","guid":"dde9b31f-765e-41ca-8ea4-eb17a0700b5e","$type":"Unity.VisualScripting.ValueConnection"},{"sourceUnit":{"$ref":"55"},"sourceKey":"value","destinationUnit":{"$ref":"168"},"destinationKey":"%x","guid":"383e8540-bbd6-4753-9c8f-38ee4d90140a","$type":"Unity.VisualScripting.ValueConnection"},{"sourceUnit":{"$ref":"234"},"sourceKey":"value","destinationUnit":{"$ref":"237"},"destinationKey":"target","guid":"d1c77588-45a5-4a85-92dc-2a6d11fe8b3b","$type":"Unity.VisualScripting.ValueConnection"},{"sourceUnit":{"$ref":"220"},"sourceKey":"value","destinationUnit":{"$ref":"245"},"destinationKey":"name","guid":"4fd957bf-92d7-420b-a1f7-7418c2f1ca84","$type":"Unity.VisualScripting.ValueConnection"},{"sourceUnit":{"$ref":"247"},"sourceKey":"value","destinationUnit":{"$ref":"245"},"destinationKey":"argument_0","guid":"20cafa38-f920-4e39-80c2-0c45f535c797","$type":"Unity.VisualScripting.ValueConnection"},{"sourceUnit":{"$ref":"95"},"sourceKey":"argument_1","destinationUnit":{"$ref":"106"},"destinationKey":"input","guid":"f0778ca1-740b-49cd-912d-f5a01fb226e3","$type":"Unity.VisualScripting.ValueConnection"},{"sourceUnit":{"$ref":"207"},"sourceKey":"output","destinationUnit":{"$ref":"218"},"destinationKey":"input","guid":"99a841ed-174a-4b1f-9127-3c3b50723946","$type":"Unity.VisualScripting.ValueConnection"},{"sourceUnit":{"$ref":"82"},"sourceKey":"value","destinationUnit":{"$ref":"127"},"destinationKey":"target","guid":"fa67b455-0663-4344-9d56-1a726ad8e673","$type":"Unity.VisualScripting.ValueConnection"},{"sourceUnit":{"$ref":"127"},"sourceKey":"value","destinationUnit":{"$ref":"58"},"destinationKey":"%z","guid":"1a2884a1-0cbd-42dc-a604-6815d7441be4","$type":"Unity.VisualScripting.ValueConnection"},{"sourceUnit":{"$ref":"77"},"sourceKey":"value","destinationUnit":{"$ref":"48"},"destinationKey":"target","guid":"ed4290e6-3a90-4b74-b533-86cd6789e050","$type":"Unity.VisualScripting.ValueConnection"},{"sourceUnit":{"$ref":"73"},"sourceKey":"value","destinationUnit":{"$ref":"28"},"destinationKey":"a","guid":"c50c9a90-2ea5-4b5f-8c35-35f0650f29a3","$type":"Unity.VisualScripting.ValueConnection"},{"sourceUnit":{"$ref":"65"},"sourceKey":"value","destinationUnit":{"$ref":"28"},"destinationKey":"b","guid":"7ddf07d8-8bd3-496c-aa65-12762c65f623","$type":"Unity.VisualScripting.ValueConnection"},{"sourceUnit":{"$ref":"68"},"sourceKey":"value","destinationUnit":{"$ref":"97"},"destinationKey":"%y","guid":"980cc455-f40d-4338-abf6-586b21d3dc48","$type":"Unity.VisualScripting.ValueConnection"},{"sourceUnit":{"$ref":"58"},"sourceKey":"result","destinationUnit":{"$ref":"154"},"destinationKey":"input","guid":"fd8f9ed9-8267-4dd2-8b7b-e185e893fc92","$type":"Unity.VisualScripting.ValueConnection"},{"sourceUnit":{"$ref":"209"},"sourceKey":"value","destinationUnit":{"$ref":"39"},"destinationKey":"input","guid":"20efcd1e-7b10-486a-a254-73352bf84fda","$type":"Unity.VisualScripting.ValueConnection"},{"sourceUnit":{"$ref":"215"},"sourceKey":"result","destinationUnit":{"$ref":"164"},"destinationKey":"a","guid":"79a6db3f-7f66-4150-b377-a0872e4d438c","$type":"Unity.VisualScripting.ValueConnection"},{"sourceUnit":{"$ref":"77"},"sourceKey":"value","destinationUnit":{"$ref":"119"},"destinationKey":"target","guid":"a314242f-72ce-4520-a40f-f62ab590a7a8","$type":"Unity.VisualScripting.ValueConnection"},{"sourceUnit":{"$ref":"70"},"sourceKey":"result","destinationUnit":{"$ref":"22"},"destinationKey":"condition","guid":"b93ebfd0-b9c6-4229-b353-eb2d9fe3e780","$type":"Unity.VisualScripting.ValueConnection"},{"sourceUnit":{"$ref":"80"},"sourceKey":"value","destinationUnit":{"$ref":"55"},"destinationKey":"target","guid":"435e1786-4f50-4d47-be1f-5118da68bb72","$type":"Unity.VisualScripting.ValueConnection"},{"sourceUnit":{"$ref":"80"},"sourceKey":"value","destinationUnit":{"$ref":"174"},"destinationKey":"target","guid":"ffb53399-dfde-4bc8-902b-21f664724444","$type":"Unity.VisualScripting.ValueConnection"},{"sourceUnit":{"$ref":"145"},"sourceKey":"argument_0","destinationUnit":{"$ref":"44"},"destinationKey":"input","guid":"6ee99e74-84d8-4103-8794-8b9e8890b902","$type":"Unity.VisualScripting.ValueConnection"},{"sourceUnit":{"$ref":"124"},"sourceKey":"result","destinationUnit":{"$ref":"243"},"destinationKey":"a","guid":"d2ae3d86-0125-4485-81fc-3896a4ebc237","$type":"Unity.VisualScripting.ValueConnection"},{"sourceUnit":{"$ref":"95"},"sourceKey":"argument_2","destinationUnit":{"$ref":"147"},"destinationKey":"input","guid":"be70fb32-7c13-40e3-85f7-ad9bbc80f9d2","$type":"Unity.VisualScripting.ValueConnection"},{"sourceUnit":{"$ref":"46"},"sourceKey":"value","destinationUnit":{"$ref":"145"},"destinationKey":"name","guid":"80248b4e-7010-4860-9ce7-47a2384de7de","$type":"Unity.VisualScripting.ValueConnection"},{"sourceUnit":{"$ref":"48"},"sourceKey":"value","destinationUnit":{"$ref":"124"},"destinationKey":"%x","guid":"c7ed1ffc-c309-492d-9ef4-4bd369bd6491","$type":"Unity.VisualScripting.ValueConnection"},{"sourceUnit":{"$ref":"168"},"sourceKey":"result","destinationUnit":{"$ref":"222"},"destinationKey":"a","guid":"96c5dd31-b8a0-42e2-985d-cdf46641eac9","$type":"Unity.VisualScripting.ValueConnection"},{"sourceUnit":{"$ref":"222"},"sourceKey":"product","destinationUnit":{"$ref":"215"},"destinationKey":"%b","guid":"b3549a82-dcb3-4657-9e56-0e4c635ce2f6","$type":"Unity.VisualScripting.ValueConnection"},{"sourceUnit":{"$ref":"243"},"sourceKey":"product","destinationUnit":{"$ref":"215"},"destinationKey":"%a","guid":"6f5356fd-b985-49b4-8790-7c37f230402e","$type":"Unity.VisualScripting.ValueConnection"},{"sourceUnit":{"$ref":"32"},"sourceKey":"value","destinationUnit":{"$ref":"58"},"destinationKey":"%x","guid":"f2e4d11c-941d-481e-b0d1-cf558d74b4e6","$type":"Unity.VisualScripting.ValueConnection"},{"sourceUnit":{"$ref":"95"},"sourceKey":"argument_0","destinationUnit":{"$ref":"162"},"destinationKey":"input","guid":"819634ed-cf2e-42cd-8f80-5f25832ef1b2","$type":"Unity.VisualScripting.ValueConnection"},{"sourceUnit":{"$ref":"249"},"sourceKey":"output","destinationUnit":{"$ref":"251"},"destinationKey":"%message","guid":"65ace48c-d192-4715-8c37-2175239809aa","$type":"Unity.VisualScripting.ValueConnection"},{"sourceUnit":{"$ref":"124"},"sourceKey":"result","destinationUnit":{"$ref":"254"},"destinationKey":"a","guid":"32fdc7a9-2d9d-45f5-8b5a-fc6019dfd7b9","$type":"Unity.VisualScripting.ValueConnection"},{"sourceUnit":{"$ref":"168"},"sourceKey":"result","destinationUnit":{"$ref":"254"},"destinationKey":"b","guid":"98ea5f01-ece2-48a9-8650-36fcf727b5f5","$type":"Unity.VisualScripting.ValueConnection"},{"sourceUnit":{"$ref":"28"},"sourceKey":"product","destinationUnit":{"$ref":"254"},"destinationKey":"t","guid":"698ea9d1-ff4e-4284-9013-5afd9d0bfd9f","$type":"Unity.VisualScripting.ValueConnection"},{"sourceUnit":{"$ref":"254"},"sourceKey":"interpolation","destinationUnit":{"$ref":"32"},"destinationKey":"target","guid":"f0986440-24f9-49e7-b0e8-36febb6b001a","$type":"Unity.VisualScripting.ValueConnection"},{"sourceUnit":{"$ref":"254"},"sourceKey":"interpolation","destinationUnit":{"$ref":"92"},"destinationKey":"target","guid":"08a03f01-e9c1-47d6-852d-1984c75e83a0","$type":"Unity.VisualScripting.ValueConnection"},{"sourceUnit":{"$ref":"254"},"sourceKey":"interpolation","destinationUnit":{"$ref":"192"},"destinationKey":"target","guid":"851a1c28-a942-42b5-a910-ae55758f6739","$type":"Unity.VisualScripting.ValueConnection"},{"sourceUnit":{"$ref":"256"},"sourceKey":"value","destinationUnit":{"$ref":"260"},"destinationKey":"subtrahend","guid":"8ec2610a-a27c-4e10-911f-2388f7cb914c","$type":"Unity.VisualScripting.ValueConnection"},{"sourceUnit":{"$ref":"258"},"sourceKey":"value","destinationUnit":{"$ref":"260"},"destinationKey":"minuend","guid":"df141005-ca18-4db2-b8bd-b3a1e0aa336b","$type":"Unity.VisualScripting.ValueConnection"},{"sourceUnit":{"$ref":"262"},"sourceKey":"comparison","destinationUnit":{"$ref":"264"},"destinationKey":"a","guid":"33406733-05d3-411c-a583-0edb45b7051c","$type":"Unity.VisualScripting.ValueConnection"},{"sourceUnit":{"$ref":"164"},"sourceKey":"comparison","destinationUnit":{"$ref":"264"},"destinationKey":"b","guid":"a34a1cb8-bb60-43a0-984a-ce11f81e1c37","$type":"Unity.VisualScripting.ValueConnection"},{"sourceUnit":{"$ref":"264"},"sourceKey":"result","destinationUnit":{"$ref":"20"},"destinationKey":"condition","guid":"ce12bbda-c5a4-4ce8-a988-b40c999951a3","$type":"Unity.VisualScripting.ValueConnection"},{"sourceUnit":{"$ref":"260"},"sourceKey":"difference","destinationUnit":{"$ref":"266"},"destinationKey":"input","guid":"17077edd-0af9-40ff-a574-9470828c0a3b","$type":"Unity.VisualScripting.ValueConnection"},{"sourceUnit":{"$ref":"266"},"sourceKey":"output","destinationUnit":{"$ref":"262"},"destinationKey":"a","guid":"9dc8efd5-31af-4a75-ba70-15b6bb40bbde","$type":"Unity.VisualScripting.ValueConnection"},{"position":{"xMin":-1168.0,"yMin":944.0,"xMax":592.5266,"yMax":1563.0},"label":"Move
      To [Arg. 0: Vector2 - target pos, Arg. 1: Float - target height, Arg. 2: Float
      - speed]","comment":null,"color":{"r":0.0,"g":0.0,"b":0.0,"a":1.0},"guid":"b226c21f-e056-4df0-8807-f2256e7187d3","$version":"A","$type":"Unity.VisualScripting.GraphGroup"},{"position":{"xMin":-1191.0,"yMin":-2506.0,"xMax":-487.0,"yMax":-2153.0},"label":"On
      Start","comment":null,"color":{"r":0.0,"g":0.0,"b":0.0,"a":1.0},"guid":"1b24977d-2ba4-4b42-b56f-c97561034a99","$version":"A","$type":"Unity.VisualScripting.GraphGroup"},{"position":{"xMin":-1174.951,"yMin":-416.0,"xMax":1024.0,"yMax":213.0},"label":"Set
      Card Layer","comment":null,"color":{"r":0.0,"g":0.0,"b":0.0,"a":1.0},"guid":"1f77f7b3-694f-4693-b9e1-213cc31e8cdd","$version":"A","$type":"Unity.VisualScripting.GraphGroup"},{"position":{"xMin":-1187.0,"yMin":-2011.0,"xMax":1037.0,"yMax":-949.0},"label":"On
      Update","comment":null,"color":{"r":0.0,"g":0.0,"b":0.0,"a":1.0},"guid":"6a8630f1-2758-413b-9cee-dd413f181bd7","$version":"A","$type":"Unity.VisualScripting.GraphGroup"},{"position":{"xMin":-1175.0,"yMin":310.0,"xMax":531.0,"yMax":849.0},"label":"Set
      Height","comment":null,"color":{"r":0.0,"g":0.0,"b":0.0,"a":1.0},"guid":"03ede488-7acf-40d1-9b0a-fc668898e02d","$version":"A","$type":"Unity.VisualScripting.GraphGroup"},{"position":{"xMin":-1162.0,"yMin":1681.0,"xMax":3288.0,"yMax":2759.0},"label":"Consume
      Move","comment":null,"color":{"r":0.0,"g":0.0,"b":0.0,"a":1.0},"guid":"53704502-6026-4a04-9b58-416778603adc","$version":"A","$type":"Unity.VisualScripting.GraphGroup"}],"$version":"A"}}'
    _objectReferences: []
